Assignment4msb105
…
dim(pop)

[1] 30038     3

Code

pop |> print(n = 10)

# A tibble: 30,038 × 3
   geo    time pop_n3
   <chr> <int>  <dbl>
 1 AL011  2001 186720
 2 AL011  2002 182380
 3 AL011  2003 178710
 4 AL011  2004 174710
 5 AL011  2005 170370
 6 AL011  2006 165610
 7 AL011  2007 160540
 8 AL011  2008 155390
 9 AL011  2009 150430
10 AL011  2010 146140
# ℹ 30,028 more rows
…
Code

eu_data <- eu_data |>
  mutate(
    gdp_pc_n3 = gdp_n3 / pop_n3
  )

Code

eu_data |>
  select(geo, time, gdp_pc_n3) |>
  print(n = 10)

# A tibble: 27,584 × 3
   geo    time gdp_pc_n3
   <chr> <int>     <dbl>
 1 AL011  2008     3547.
 2 AL011  2009     3870.
 3 AL011  2010     4544.
 4 AL011  2011     4427.
 5 AL011  2012     5150.
 6 AL011  2013     5123.
 7 AL011  2014     5544.
 8 AL011  2015     6064.
 9 AL011  2016     6299.
10 AL011  2017     6494.
# ℹ 27,574 more rows
…
